sdafss,SUB-DEPARTMENT NAME,asdfasfas,asdfas,LAST NAME,safdsa,OFFICE PHONE NUMBER,MOBILE PHONE NUMBER,asdf
dsf,afasfa,sdf,sdf,sdf,sdf,sdf,sfd,
sdfsf,safsf,sfs,fsf,fdsf,sdfas,fsafdsa,sa,
sdfadf,sadfsa,fsafds,fsa,dsafsadfd,dfsdaf,sadfsadf,sadfsadf,
