DEPARTMENT NAME,SUB-DEPARTMENT NAME,SIP-ACCOUNT,FIRST NAME,LAST NAME,EMAIL ADDRESS,OFFICE PHONE NUMBER,MOBILE PHONE NUMBER,,,,,,,
33,33,33,33,33,33,33,33,,,,,,,
33,33,33,33,33,33,33,33,,,,,,,
33,33,33,33,33,33,33,33,,,,,,,
33,33,33,33,33,33,33,33,,,,,,,
33,33,33,33,33,33,33,33,,,,,,,
33,33,33,33,33,33,33,33,,,,,,,
33,33,33,33,33,33,33,33,,,,,,,
33,33,33,33,33,33,33,33,,,,,,,
33,33,33,33,33,33,33,33,,,,,,,
33,33,33,33,33,33,33,33,,,,,,,
33,33,33,33,33,33,33,33,,,,,,,
33,33,33,33,33,33,33,33,,,,,,,
33,33,33,33,33,33,33,33,,,,,,,
33,33,33,33,33,33,33,33,,,,,,,
33,33,33,33,33,33,33,33,,,,,,,
33,33,33,33,33,33,33,33,,,,,,,
33,33,33,33,33,33,33,33,,,,,,,
33,33,33,33,33,33,33,33,,,,,,,
33,33,33,33,33,33,33,33,,,,,,,
33,33,33,33,33,33,33,33,,,,,,,
