DEPARTMENT NAME,SUB-DEPARTMENT NAME,SIP-ACCOUNT,FIRST NAME,LAST NAME,EMAIL ADDRESS,OFFICE PHONE NUMBER,MOBILE PHONE NUMBER
44444444444,44444444444,44444444444,44444444444,44444444444,44444444444,44444444444,44444444444
44444444444,44444444444,44444444444,44444444444,44444444444,44444444444,44444444444,44444444444
44444444444,44444444444,44444444444,44444444444,44444444444,44444444444,44444444444,44444444444
44444444444,44444444444,44444444444,44444444444,44444444444,44444444444,44444444444,44444444444
44444444444,44444444444,44444444444,44444444444,44444444444,44444444444,44444444444,44444444444
44444444444,44444444444,44444444444,44444444444,44444444444,44444444444,44444444444,44444444444
44444444444,44444444444,44444444444,44444444444,44444444444,44444444444,44444444444,44444444444
44444444444,44444444444,44444444444,44444444444,44444444444,44444444444,44444444444,44444444444
44444444444,44444444444,44444444444,44444444444,44444444444,44444444444,44444444444,44444444444
44444444444,44444444444,44444444444,44444444444,44444444444,44444444444,44444444444,44444444444
44444444444,44444444444,44444444444,44444444444,44444444444,44444444444,44444444444,44444444444
44444444444,44444444444,44444444444,44444444444,44444444444,44444444444,44444444444,44444444444
44444444444,44444444444,44444444444,44444444444,44444444444,44444444444,44444444444,44444444444
44444444444,44444444444,44444444444,44444444444,44444444444,44444444444,44444444444,44444444444
44444444444,44444444444,44444444444,44444444444,44444444444,44444444444,44444444444,44444444444
44444444444,44444444444,44444444444,44444444444,44444444444,44444444444,44444444444,44444444444
44444444444,44444444444,44444444444,44444444444,44444444444,44444444444,44444444444,44444444444
44444444444,44444444444,44444444444,44444444444,44444444444,44444444444,44444444444,44444444444
44444444444,44444444444,44444444444,44444444444,44444444444,44444444444,44444444444,44444444444
44444444444,44444444444,44444444444,44444444444,44444444444,44444444444,44444444444,44444444444
44444444444,44444444444,44444444444,44444444444,44444444444,44444444444,44444444444,44444444444
